ISSS608-VAA - Take Home Exercise 1
…
Regrouping Code

Code

df_regrouped <- participants_df2 %>%
  mutate(age_group = case_when(
    age <= 35 ~ "Group 18 - 30",
    age <= 40 ~ "Group 31 - 40",
    age <= 50 ~ "Group 41 - 50",
    TRUE ~ "Group Above 50"
  ))
df_regrouped

# A tibble: 1,011 × 8
   participantId householdSize haveKids   age educationLevel      interestGroup
           <dbl>         <dbl> <lgl>    <dbl> <chr>               <chr>        
 1             0             3 TRUE        36 HighSchoolOrCollege H            
 2             1             3 TRUE        25 HighSchoolOrCollege B            
 3             2             3 TRUE        35 HighSchoolOrCollege A            
 4             3             3 TRUE        21 HighSchoolOrCollege I            
 5             4             3 TRUE        43 Bachelors           H            
 6             5             3 TRUE        32 HighSchoolOrCollege D            
 7             6             3 TRUE        26 HighSchoolOrCollege I            
 8             7             3 TRUE        27 Bachelors           A            
 9             8             3 TRUE        20 Bachelors           G            
10             9             3 TRUE        35 Bachelors           D            
# ℹ 1,001 more rows
# ℹ 2 more variables: joviality <dbl>, age_group <chr>
…
