ISSS608-VAA - Take Home Exercise 2
…
`summarise()` has grouped output by 'source', 'target'. You can override using
the `.groups` argument.

MC2_nodes_aggregated <- MC2_nodes %>%
  filter(shpcountry!= 'NA') %>%
  filter(rcvcountry!= 'NA') %>%
  ungroup()
MC2_nodes_aggregated

# A tibble: 9,332 × 3
   id                                   shpcountry  rcvcountry
   <chr>                                <chr>       <chr>     
 1 AquaDelight Inc and Son's            Polarinda   Oceanus   
 2 Yu gan  Sea spray GmbH Industrial    Oceanus     Oceanus   
 3 Olas del Mar Worldwide               Oceanus     Oceanus   
 4 French Crab S.p.A. Worldwide         Kondanovia  Utoporiana
 5 Panope Limited Liability Company     Vesperanda  Oceanus   
 6 hǎi dǎn Corporation Wharf            Marebak     Oceanus   
 7 Sea Breezes GmbH & Co. KG Shark      Oceanus     Oceanus   
 8 Khundu Whale AG Cargo                Oceanus     Oceanus   
 9 1 Ltd. Corporation Transport         Coral Solis Oceanus   
10 Irish Sea  Limited Liability Company Marebak     Oceanus   
# ℹ 9,322 more rows
